SoccerExploratory
…
# Preview how clusters are distributed
table(fifa$Cluster)

   1    2    3    4 
4183 3495 5611 3818 

# Optional: check top players per cluster
fifa |>
  group_by(Cluster) |>
  slice_max(order_by = overall, n = 5) |>
  select(Cluster, short_name, club_name, overall, pace, shooting, passing, dribbling, defending, physic)

# A tibble: 24 × 10
# Groups:   Cluster [4]
   Cluster short_name        club_name  overall  pace shooting passing dribbling
   <fct>   <chr>             <chr>        <dbl> <dbl>    <dbl>   <dbl>     <dbl>
 1 1       S. Savić          Atlético …      84    64       35      57        58
 2 1       K. Manolas        Napoli          83    81       25      44        62
 3 1       N. Süle           FC Bayern…      82    65       42      59        51
 4 1       W. Orban          RB Leipzig      81    49       36      52        55
 5 1       J. Evans          Leicester…      80    52       32      61        60
 6 1       G. Mancini        Roma            80    61       45      50        59
 7 1       Unai Núñez        Athletic …      80    72       22      49        50
 8 2       L. Messi          Paris Sai…      93    85       92      91        95
 9 2       R. Lewandowski    FC Bayern…      92    78       92      79        86
10 2       Cristiano Ronaldo Mancheste…      91    87       94      80        88
# ℹ 14 more rows
# ℹ 2 more variables: defending <dbl>, physic <dbl>
…
